# This file uses centimeters as units for non-parametric coordinates.

mtllib SM_Basic_Ball.mtl
g default
v 4.144013 -27.510719 -1.346471
v 3.525108 -27.510719 -2.561141
v 2.561141 -27.510719 -3.525108
v 1.346471 -27.510719 -4.144012
v 0.000000 -27.510719 -4.357272
v -1.346471 -27.510719 -4.144012
v -2.561140 -27.510719 -3.525107
v -3.525107 -27.510719 -2.561140
v -4.144011 -27.510719 -1.346471
v -4.357271 -27.510719 0.000000
v -4.144011 -27.510719 1.346471
v -3.525107 -27.510719 2.561140
v -2.561140 -27.510719 3.525106
v -1.346471 -27.510719 4.144011
v -0.000000 -27.510719 4.357271
v 1.346470 -27.510719 4.144010
v 2.561139 -27.510719 3.525106
v 3.525106 -27.510719 2.561139
v 4.144010 -27.510719 1.346471
v 4.357270 -27.510719 0.000000
v 8.185986 -26.490390 -2.659788
v 6.963416 -26.490390 -5.059217
v 5.059217 -26.490390 -6.963415
v 2.659788 -26.490390 -8.185985
v 0.000000 -26.490390 -8.607254
v -2.659788 -26.490390 -8.185984
v -5.059216 -26.490390 -6.963413
v -6.963413 -26.490390 -5.059216
v -8.185983 -26.490390 -2.659787
v -8.607251 -26.490390 0.000000
v -8.185983 -26.490390 2.659787
v -6.963412 -26.490390 5.059215
v -5.059215 -26.490390 6.963412
v -2.659787 -26.490390 8.185982
v -0.000000 -26.490390 8.607250
v 2.659786 -26.490390 8.185981
v 5.059214 -26.490390 6.963412
v 6.963411 -26.490390 5.059215
v 8.185981 -26.490390 2.659786
v 8.607249 -26.490390 0.000000
v 12.026393 -24.817778 -3.907612
v 10.230261 -24.817778 -7.432720
v 7.432720 -24.817778 -10.230261
v 3.907611 -24.817778 -12.026392
v 0.000000 -24.817778 -12.645296
v -3.907611 -24.817778 -12.026391
v -7.432718 -24.817778 -10.230258
v -10.230257 -24.817778 -7.432717
v -12.026389 -24.817778 -3.907610
v -12.645293 -24.817778 0.000000
v -12.026389 -24.817778 3.907610
v -10.230256 -24.817778 7.432716
v -7.432716 -24.817778 10.230256
v -3.907610 -24.817778 12.026387
v -0.000000 -24.817778 12.645292
v 3.907609 -24.817778 12.026387
v 7.432715 -24.817778 10.230256
v 10.230255 -24.817778 7.432716
v 12.026386 -24.817778 3.907610
v 12.645290 -24.817778 0.000000
v 15.570670 -22.534071 -5.059217
v 13.245203 -22.534071 -9.623203
v 9.623203 -22.534071 -13.245202
v 5.059217 -22.534071 -15.570668
v 0.000000 -22.534071 -16.371969
v -5.059217 -22.534071 -15.570667
v -9.623201 -22.534071 -13.245199
v -13.245198 -22.534071 -9.623199
v -15.570664 -22.534071 -5.059215
v -16.371964 -22.534071 0.000000
v -15.570664 -22.534071 5.059215
v -13.245197 -22.534071 9.623199
v -9.623199 -22.534071 13.245196
v -5.059215 -22.534071 15.570662
v -0.000000 -22.534071 16.371962
v 5.059214 -22.534071 15.570662
v 9.623197 -22.534071 13.245196
v 13.245195 -22.534071 9.623198
v 15.570660 -22.534071 5.059214
v 16.371961 -22.534071 0.000000
v 18.731546 -19.695500 -6.086248
v 15.934005 -19.695500 -11.576731
v 11.576731 -19.695500 -15.934003
v 6.086247 -19.695500 -18.731544
v 0.000000 -19.695500 -19.695510
v -6.086247 -19.695500 -18.731542
v -11.576729 -19.695500 -15.934000
v -15.933998 -19.695500 -11.576728
v -18.731539 -19.695500 -6.086245
v -19.695505 -19.695500 0.000000
v -18.731539 -19.695500 6.086245
v -15.933998 -19.695500 11.576726
v -11.576726 -19.695500 15.933996
v -6.086245 -19.695500 18.731536
v -0.000001 -19.695500 19.695501
v 6.086244 -19.695500 18.731536
v 11.576724 -19.695500 15.933995
v 15.933995 -19.695500 11.576725
v 18.731534 -19.695500 6.086244
v 19.695500 -19.695500 0.000000
v 21.431189 -16.371961 -6.963415
v 18.230459 -16.371961 -13.245202
v 13.245202 -16.371961 -18.230457
v 6.963414 -16.371961 -21.431186
v 0.000000 -16.371961 -22.534081
v -6.963414 -16.371961 -21.431184
v -13.245200 -16.371961 -18.230454
v -18.230452 -16.371961 -13.245198
v -21.431181 -16.371961 -6.963412
v -22.534076 -16.371961 0.000000
v -21.431181 -16.371961 6.963412
v -18.230450 -16.371961 13.245197
v -13.245197 -16.371961 18.230449
v -6.963412 -16.371961 21.431178
v -0.000001 -16.371961 22.534074
v 6.963410 -16.371961 21.431178
v 13.245195 -16.371961 18.230447
v 18.230447 -16.371961 13.245196
v 21.431176 -16.371961 6.963411
v 22.534071 -16.371961 0.000000
v 23.603124 -12.645290 -7.669120
v 20.078018 -12.645290 -14.587532
v 14.587532 -12.645290 -20.078016
v 7.669119 -12.645290 -23.603121
v 0.000000 -12.645290 -24.817790
v -7.669119 -12.645290 -23.603121
v -14.587529 -12.645290 -20.078011
v -20.078010 -12.645290 -14.587527
v -23.603116 -12.645290 -7.669116
v -24.817785 -12.645290 0.000000
v -23.603116 -12.645290 7.669116
v -20.078010 -12.645290 14.587527
v -14.587527 -12.645290 20.078008
v -7.669116 -12.645290 23.603113
v -0.000001 -12.645290 24.817781
v 7.669115 -12.645290 23.603111
v 14.587524 -12.645290 20.078006
v 20.078005 -12.645290 14.587526
v 23.603110 -12.645290 7.669116
v 24.817778 -12.645290 0.000000
v 25.193875 -8.607249 -8.185985
v 21.431189 -8.607249 -15.570670
v 15.570670 -8.607249 -21.431188
v 8.185984 -8.607249 -25.193871
v 0.000000 -8.607249 -26.490403
v -8.185984 -8.607249 -25.193870
v -15.570667 -8.607249 -21.431184
v -21.431183 -8.607249 -15.570665
v -25.193865 -8.607249 -8.185983
v -26.490396 -8.607249 0.000000
v -25.193865 -8.607249 8.185983
v -21.431181 -8.607249 15.570664
v -15.570664 -8.607249 21.431179
v -8.185983 -8.607249 25.193861
v -0.000001 -8.607249 26.490393
v 8.185980 -8.607249 25.193860
v 15.570660 -8.607249 21.431178
v 21.431176 -8.607249 15.570662
v 25.193858 -8.607249 8.185981
v 26.490390 -8.607249 0.000000
v 26.164265 -4.357267 -8.501285
v 22.256654 -4.357267 -16.170405
v 16.170405 -4.357267 -22.256652
v 8.501284 -4.357267 -26.164262
v 0.000000 -4.357267 -27.510733
v -8.501284 -4.357267 -26.164260
v -16.170401 -4.357267 -22.256647
v -22.256646 -4.357267 -16.170400
v -26.164255 -4.357267 -8.501282
v -27.510726 -4.357267 0.000000
v -26.164255 -4.357267 8.501282
v -22.256644 -4.357267 16.170398
v -16.170398 -4.357267 22.256642
v -8.501282 -4.357267 26.164252
v -0.000001 -4.357267 27.510723
v 8.501279 -4.357267 26.164252
v 16.170395 -4.357267 22.256641
v 22.256639 -4.357267 16.170397
v 26.164250 -4.357267 8.501280
v 27.510719 -4.357267 0.000000
v 26.490406 0.000000 -8.607254
v 22.534086 0.000000 -16.371970
v 16.371970 0.000000 -22.534084
v 8.607254 0.000000 -26.490403
v 0.000000 0.000000 -27.853657
v -8.607254 0.000000 -26.490401
v -16.371967 0.000000 -22.534079
v -22.534078 0.000000 -16.371965
v -26.490396 0.000000 -8.607251
v -27.853650 0.000000 0.000000
v -26.490396 0.000000 8.607251
v -22.534076 0.000000 16.371964
v -16.371964 0.000000 22.534074
v -8.607251 0.000000 26.490393
v -0.000001 0.000000 27.853647
v 8.607249 0.000000 26.490391
v 16.371961 0.000000 22.534073
v 22.534071 0.000000 16.371962
v 26.490390 0.000000 8.607249
v 27.853643 0.000000 0.000000
v 26.164265 4.357267 -8.501285
v 22.256654 4.357267 -16.170405
v 16.170405 4.357267 -22.256652
v 8.501284 4.357267 -26.164262
v 0.000000 4.357267 -27.510733
v -8.501284 4.357267 -26.164260
v -16.170401 4.357267 -22.256647
v -22.256646 4.357267 -16.170400
v -26.164255 4.357267 -8.501282
v -27.510726 4.357267 0.000000
v -26.164255 4.357267 8.501282
v -22.256644 4.357267 16.170398
v -16.170398 4.357267 22.256642
v -8.501282 4.357267 26.164252
v -0.000001 4.357267 27.510723
v 8.501279 4.357267 26.164252
v 16.170395 4.357267 22.256641
v 22.256639 4.357267 16.170397
v 26.164250 4.357267 8.501280
v 27.510719 4.357267 0.000000
v 25.193875 8.607249 -8.185985
v 21.431189 8.607249 -15.570670
v 15.570670 8.607249 -21.431188
v 8.185984 8.607249 -25.193871
v 0.000000 8.607249 -26.490403
v -8.185984 8.607249 -25.193870
v -15.570667 8.607249 -21.431184
v -21.431183 8.607249 -15.570665
v -25.193865 8.607249 -8.185983
v -26.490396 8.607249 0.000000
v -25.193865 8.607249 8.185983
v -21.431181 8.607249 15.570664
v -15.570664 8.607249 21.431179
v -8.185983 8.607249 25.193861
v -0.000001 8.607249 26.490393
v 8.185980 8.607249 25.193860
v 15.570660 8.607249 21.431178
v 21.431176 8.607249 15.570662
v 25.193858 8.607249 8.185981
v 26.490390 8.607249 0.000000
v 23.603124 12.645290 -7.669120
v 20.078018 12.645290 -14.587532
v 14.587532 12.645290 -20.078016
v 7.669119 12.645290 -23.603121
v 0.000000 12.645290 -24.817790
v -7.669119 12.645290 -23.603121
v -14.587529 12.645290 -20.078011
v -20.078010 12.645290 -14.587527
v -23.603116 12.645290 -7.669116
v -24.817785 12.645290 0.000000
v -23.603116 12.645290 7.669116
v -20.078010 12.645290 14.587527
v -14.587527 12.645290 20.078008
v -7.669116 12.645290 23.603113
v -0.000001 12.645290 24.817781
v 7.669115 12.645290 23.603111
v 14.587524 12.645290 20.078006
v 20.078005 12.645290 14.587526
v 23.603110 12.645290 7.669116
v 24.817778 12.645290 0.000000
v 21.431189 16.371961 -6.963415
v 18.230459 16.371961 -13.245202
v 13.245202 16.371961 -18.230457
v 6.963414 16.371961 -21.431186
v 0.000000 16.371961 -22.534081
v -6.963414 16.371961 -21.431184
v -13.245200 16.371961 -18.230454
v -18.230452 16.371961 -13.245198
v -21.431181 16.371961 -6.963412
v -22.534076 16.371961 0.000000
v -21.431181 16.371961 6.963412
v -18.230450 16.371961 13.245197
v -13.245197 16.371961 18.230449
v -6.963412 16.371961 21.431178
v -0.000001 16.371961 22.534074
v 6.963410 16.371961 21.431178
v 13.245195 16.371961 18.230447
v 18.230447 16.371961 13.245196
v 21.431176 16.371961 6.963411
v 22.534071 16.371961 0.000000
v 18.731546 19.695500 -6.086248
v 15.934005 19.695500 -11.576731
v 11.576731 19.695500 -15.934003
v 6.086247 19.695500 -18.731544
v 0.000000 19.695500 -19.695510
v -6.086247 19.695500 -18.731542
v -11.576729 19.695500 -15.934000
v -15.933998 19.695500 -11.576728
v -18.731539 19.695500 -6.086245
v -19.695505 19.695500 0.000000
v -18.731539 19.695500 6.086245
v -15.933998 19.695500 11.576726
v -11.576726 19.695500 15.933996
v -6.086245 19.695500 18.731536
v -0.000001 19.695500 19.695501
v 6.086244 19.695500 18.731536
v 11.576724 19.695500 15.933995
v 15.933995 19.695500 11.576725
v 18.731534 19.695500 6.086244
v 19.695500 19.695500 0.000000
v 15.570670 22.534071 -5.059217
v 13.245203 22.534071 -9.623203
v 9.623203 22.534071 -13.245202
v 5.059217 22.534071 -15.570668
v 0.000000 22.534071 -16.371969
v -5.059217 22.534071 -15.570667
v -9.623201 22.534071 -13.245199
v -13.245198 22.534071 -9.623199
v -15.570664 22.534071 -5.059215
v -16.371964 22.534071 0.000000
v -15.570664 22.534071 5.059215
v -13.245197 22.534071 9.623199
v -9.623199 22.534071 13.245196
v -5.059215 22.534071 15.570662
v -0.000000 22.534071 16.371962
v 5.059214 22.534071 15.570662
v 9.623197 22.534071 13.245196
v 13.245195 22.534071 9.623198
v 15.570660 22.534071 5.059214
v 16.371961 22.534071 0.000000
v 12.026393 24.817778 -3.907612
v 10.230261 24.817778 -7.432720
v 7.432720 24.817778 -10.230261
v 3.907611 24.817778 -12.026392
v 0.000000 24.817778 -12.645296
v -3.907611 24.817778 -12.026391
v -7.432718 24.817778 -10.230258
v -10.230257 24.817778 -7.432717
v -12.026389 24.817778 -3.907610
v -12.645293 24.817778 0.000000
v -12.026389 24.817778 3.907610
v -10.230256 24.817778 7.432716
v -7.432716 24.817778 10.230256
v -3.907610 24.817778 12.026387
v -0.000000 24.817778 12.645292
v 3.907609 24.817778 12.026387
v 7.432715 24.817778 10.230256
v 10.230255 24.817778 7.432716
v 12.026386 24.817778 3.907610
v 12.645290 24.817778 0.000000
v 8.185986 26.490390 -2.659788
v 6.963416 26.490390 -5.059217
v 5.059217 26.490390 -6.963415
v 2.659788 26.490390 -8.185985
v 0.000000 26.490390 -8.607254
v -2.659788 26.490390 -8.185984
v -5.059216 26.490390 -6.963413
v -6.963413 26.490390 -5.059216
v -8.185983 26.490390 -2.659787
v -8.607251 26.490390 0.000000
v -8.185983 26.490390 2.659787
v -6.963412 26.490390 5.059215
v -5.059215 26.490390 6.963412
v -2.659787 26.490390 8.185982
v -0.000000 26.490390 8.607250
v 2.659786 26.490390 8.185981
v 5.059214 26.490390 6.963412
v 6.963411 26.490390 5.059215
v 8.185981 26.490390 2.659786
v 8.607249 26.490390 0.000000
v 4.144013 27.510719 -1.346471
v 3.525108 27.510719 -2.561141
v 2.561141 27.510719 -3.525108
v 1.346471 27.510719 -4.144012
v 0.000000 27.510719 -4.357272
v -1.346471 27.510719 -4.144012
v -2.561140 27.510719 -3.525107
v -3.525107 27.510719 -2.561140
v -4.144011 27.510719 -1.346471
v -4.357271 27.510719 0.000000
v -4.144011 27.510719 1.346471
v -3.525107 27.510719 2.561140
v -2.561140 27.510719 3.525106
v -1.346471 27.510719 4.144011
v -0.000000 27.510719 4.357271
v 1.346470 27.510719 4.144010
v 2.561139 27.510719 3.525106
v 3.525106 27.510719 2.561139
v 4.144010 27.510719 1.346471
v 4.357270 27.510719 0.000000
v 0.000000 -27.853643 0.000000
v 0.000000 27.853643 0.000000
vt 0.000000 0.050000
vt 0.050000 0.050000
vt 0.100000 0.050000
vt 0.150000 0.050000
vt 0.200000 0.050000
vt 0.250000 0.050000
vt 0.300000 0.050000
vt 0.350000 0.050000
vt 0.400000 0.050000
vt 0.450000 0.050000
vt 0.500000 0.050000
vt 0.550000 0.050000
vt 0.600000 0.050000
vt 0.650000 0.050000
vt 0.700000 0.050000
vt 0.750000 0.050000
vt 0.800000 0.050000
vt 0.850000 0.050000
vt 0.900000 0.050000
vt 0.950000 0.050000
vt 1.000000 0.050000
vt 0.000000 0.100000
vt 0.050000 0.100000
vt 0.100000 0.100000
vt 0.150000 0.100000
vt 0.200000 0.100000
vt 0.250000 0.100000
vt 0.300000 0.100000
vt 0.350000 0.100000
vt 0.400000 0.100000
vt 0.450000 0.100000
vt 0.500000 0.100000
vt 0.550000 0.100000
vt 0.600000 0.100000
vt 0.650000 0.100000
vt 0.700000 0.100000
vt 0.750000 0.100000
vt 0.800000 0.100000
vt 0.850000 0.100000
vt 0.900000 0.100000
vt 0.950000 0.100000
vt 1.000000 0.100000
vt 0.000000 0.150000
vt 0.050000 0.150000
vt 0.100000 0.150000
vt 0.150000 0.150000
vt 0.200000 0.150000
vt 0.250000 0.150000
vt 0.300000 0.150000
vt 0.350000 0.150000
vt 0.400000 0.150000
vt 0.450000 0.150000
vt 0.500000 0.150000
vt 0.550000 0.150000
vt 0.600000 0.150000
vt 0.650000 0.150000
vt 0.700000 0.150000
vt 0.750000 0.150000
vt 0.800000 0.150000
vt 0.850000 0.150000
vt 0.900000 0.150000
vt 0.950000 0.150000
vt 1.000000 0.150000
vt 0.000000 0.200000
vt 0.050000 0.200000
vt 0.100000 0.200000
vt 0.150000 0.200000
vt 0.200000 0.200000
vt 0.250000 0.200000
vt 0.300000 0.200000
vt 0.350000 0.200000
vt 0.400000 0.200000
vt 0.450000 0.200000
vt 0.500000 0.200000
vt 0.550000 0.200000
vt 0.600000 0.200000
vt 0.650000 0.200000
vt 0.700000 0.200000
vt 0.750000 0.200000
vt 0.800000 0.200000
vt 0.850000 0.200000
vt 0.900000 0.200000
vt 0.950000 0.200000
vt 1.000000 0.200000
vt 0.000000 0.250000
vt 0.050000 0.250000
vt 0.100000 0.250000
vt 0.150000 0.250000
vt 0.200000 0.250000
vt 0.250000 0.250000
vt 0.300000 0.250000
vt 0.350000 0.250000
vt 0.400000 0.250000
vt 0.450000 0.250000
vt 0.500000 0.250000
vt 0.550000 0.250000
vt 0.600000 0.250000
vt 0.650000 0.250000
vt 0.700000 0.250000
vt 0.750000 0.250000
vt 0.800000 0.250000
vt 0.850000 0.250000
vt 0.900000 0.250000
vt 0.950000 0.250000
vt 1.000000 0.250000
vt 0.000000 0.300000
vt 0.050000 0.300000
vt 0.100000 0.300000
vt 0.150000 0.300000
vt 0.200000 0.300000
vt 0.250000 0.300000
vt 0.300000 0.300000
vt 0.350000 0.300000
vt 0.400000 0.300000
vt 0.450000 0.300000
vt 0.500000 0.300000
vt 0.550000 0.300000
vt 0.600000 0.300000
vt 0.650000 0.300000
vt 0.700000 0.300000
vt 0.750000 0.300000
vt 0.800000 0.300000
vt 0.850000 0.300000
vt 0.900000 0.300000
vt 0.950000 0.300000
vt 1.000000 0.300000
vt 0.000000 0.350000
vt 0.050000 0.350000
vt 0.100000 0.350000
vt 0.150000 0.350000
vt 0.200000 0.350000
vt 0.250000 0.350000
vt 0.300000 0.350000
vt 0.350000 0.350000
vt 0.400000 0.350000
vt 0.450000 0.350000
vt 0.500000 0.350000
vt 0.550000 0.350000
vt 0.600000 0.350000
vt 0.650000 0.350000
vt 0.700000 0.350000
vt 0.750000 0.350000
vt 0.800000 0.350000
vt 0.850000 0.350000
vt 0.900000 0.350000
vt 0.950000 0.350000
vt 1.000000 0.350000
vt 0.000000 0.400000
vt 0.050000 0.400000
vt 0.100000 0.400000
vt 0.150000 0.400000
vt 0.200000 0.400000
vt 0.250000 0.400000
vt 0.300000 0.400000
vt 0.350000 0.400000
vt 0.400000 0.400000
vt 0.450000 0.400000
vt 0.500000 0.400000
vt 0.550000 0.400000
vt 0.600000 0.400000
vt 0.650000 0.400000
vt 0.700000 0.400000
vt 0.750000 0.400000
vt 0.800000 0.400000
vt 0.850000 0.400000
vt 0.900000 0.400000
vt 0.950000 0.400000
vt 1.000000 0.400000
vt 0.000000 0.450000
vt 0.050000 0.450000
vt 0.100000 0.450000
vt 0.150000 0.450000
vt 0.200000 0.450000
vt 0.250000 0.450000
vt 0.300000 0.450000
vt 0.350000 0.450000
vt 0.400000 0.450000
vt 0.450000 0.450000
vt 0.500000 0.450000
vt 0.550000 0.450000
vt 0.600000 0.450000
vt 0.650000 0.450000
vt 0.700000 0.450000
vt 0.750000 0.450000
vt 0.800000 0.450000
vt 0.850000 0.450000
vt 0.900000 0.450000
vt 0.950000 0.450000
vt 1.000000 0.450000
vt 0.000000 0.500000
vt 0.050000 0.500000
vt 0.100000 0.500000
vt 0.150000 0.500000
vt 0.200000 0.500000
vt 0.250000 0.500000
vt 0.300000 0.500000
vt 0.350000 0.500000
vt 0.400000 0.500000
vt 0.450000 0.500000
vt 0.500000 0.500000
vt 0.550000 0.500000
vt 0.600000 0.500000
vt 0.650000 0.500000
vt 0.700000 0.500000
vt 0.750000 0.500000
vt 0.800000 0.500000
vt 0.850000 0.500000
vt 0.900000 0.500000
vt 0.950000 0.500000
vt 1.000000 0.500000
vt 0.000000 0.550000
vt 0.050000 0.550000
vt 0.100000 0.550000
vt 0.150000 0.550000
vt 0.200000 0.550000
vt 0.250000 0.550000
vt 0.300000 0.550000
vt 0.350000 0.550000
vt 0.400000 0.550000
vt 0.450000 0.550000
vt 0.500000 0.550000
vt 0.550000 0.550000
vt 0.600000 0.550000
vt 0.650000 0.550000
vt 0.700000 0.550000
vt 0.750000 0.550000
vt 0.800000 0.550000
vt 0.850000 0.550000
vt 0.900000 0.550000
vt 0.950000 0.550000
vt 1.000000 0.550000
vt 0.000000 0.600000
vt 0.050000 0.600000
vt 0.100000 0.600000
vt 0.150000 0.600000
vt 0.200000 0.600000
vt 0.250000 0.600000
vt 0.300000 0.600000
vt 0.350000 0.600000
vt 0.400000 0.600000
vt 0.450000 0.600000
vt 0.500000 0.600000
vt 0.550000 0.600000
vt 0.600000 0.600000
vt 0.650000 0.600000
vt 0.700000 0.600000
vt 0.750000 0.600000
vt 0.800000 0.600000
vt 0.850000 0.600000
vt 0.900000 0.600000
vt 0.950000 0.600000
vt 1.000000 0.600000
vt 0.000000 0.650000
vt 0.050000 0.650000
vt 0.100000 0.650000
vt 0.150000 0.650000
vt 0.200000 0.650000
vt 0.250000 0.650000
vt 0.300000 0.650000
vt 0.350000 0.650000
vt 0.400000 0.650000
vt 0.450000 0.650000
vt 0.500000 0.650000
vt 0.550000 0.650000
vt 0.600000 0.650000
vt 0.650000 0.650000
vt 0.700000 0.650000
vt 0.750000 0.650000
vt 0.800000 0.650000
vt 0.850000 0.650000
vt 0.900000 0.650000
vt 0.950000 0.650000
vt 1.000000 0.650000
vt 0.000000 0.700000
vt 0.050000 0.700000
vt 0.100000 0.700000
vt 0.150000 0.700000
vt 0.200000 0.700000
vt 0.250000 0.700000
vt 0.300000 0.700000
vt 0.350000 0.700000
vt 0.400000 0.700000
vt 0.450000 0.700000
vt 0.500000 0.700000
vt 0.550000 0.700000
vt 0.600000 0.700000
vt 0.650000 0.700000
vt 0.700000 0.700000
vt 0.750000 0.700000
vt 0.800000 0.700000
vt 0.850000 0.700000
vt 0.900000 0.700000
vt 0.950000 0.700000
vt 1.000000 0.700000
vt 0.000000 0.750000
vt 0.050000 0.750000
vt 0.100000 0.750000
vt 0.150000 0.750000
vt 0.200000 0.750000
vt 0.250000 0.750000
vt 0.300000 0.750000
vt 0.350000 0.750000
vt 0.400000 0.750000
vt 0.450000 0.750000
vt 0.500000 0.750000
vt 0.550000 0.750000
vt 0.600000 0.750000
vt 0.650000 0.750000
vt 0.700000 0.750000
vt 0.750000 0.750000
vt 0.800000 0.750000
vt 0.850000 0.750000
vt 0.900000 0.750000
vt 0.950000 0.750000
vt 1.000000 0.750000
vt 0.000000 0.800000
vt 0.050000 0.800000
vt 0.100000 0.800000
vt 0.150000 0.800000
vt 0.200000 0.800000
vt 0.250000 0.800000
vt 0.300000 0.800000
vt 0.350000 0.800000
vt 0.400000 0.800000
vt 0.450000 0.800000
vt 0.500000 0.800000
vt 0.550000 0.800000
vt 0.600000 0.800000
vt 0.650000 0.800000
vt 0.700000 0.800000
vt 0.750000 0.800000
vt 0.800000 0.800000
vt 0.850000 0.800000
vt 0.900000 0.800000
vt 0.950000 0.800000
vt 1.000000 0.800000
vt 0.000000 0.850000
vt 0.050000 0.850000
vt 0.100000 0.850000
vt 0.150000 0.850000
vt 0.200000 0.850000
vt 0.250000 0.850000
vt 0.300000 0.850000
vt 0.350000 0.850000
vt 0.400000 0.850000
vt 0.450000 0.850000
vt 0.500000 0.850000
vt 0.550000 0.850000
vt 0.600000 0.850000
vt 0.650000 0.850000
vt 0.700000 0.850000
vt 0.750000 0.850000
vt 0.800000 0.850000
vt 0.850000 0.850000
vt 0.900000 0.850000
vt 0.950000 0.850000
vt 1.000000 0.850000
vt 0.000000 0.900000
vt 0.050000 0.900000
vt 0.100000 0.900000
vt 0.150000 0.900000
vt 0.200000 0.900000
vt 0.250000 0.900000
vt 0.300000 0.900000
vt 0.350000 0.900000
vt 0.400000 0.900000
vt 0.450000 0.900000
vt 0.500000 0.900000
vt 0.550000 0.900000
vt 0.600000 0.900000
vt 0.650000 0.900000
vt 0.700000 0.900000
vt 0.750000 0.900000
vt 0.800000 0.900000
vt 0.850000 0.900000
vt 0.900000 0.900000
vt 0.950000 0.900000
vt 1.000000 0.900000
vt 0.000000 0.950000
vt 0.050000 0.950000
vt 0.100000 0.950000
vt 0.150000 0.950000
vt 0.200000 0.950000
vt 0.250000 0.950000
vt 0.300000 0.950000
vt 0.350000 0.950000
vt 0.400000 0.950000
vt 0.450000 0.950000
vt 0.500000 0.950000
vt 0.550000 0.950000
vt 0.600000 0.950000
vt 0.650000 0.950000
vt 0.700000 0.950000
vt 0.750000 0.950000
vt 0.800000 0.950000
vt 0.850000 0.950000
vt 0.900000 0.950000
vt 0.950000 0.950000
vt 1.000000 0.950000
vt 0.025000 0.000000
vt 0.075000 0.000000
vt 0.125000 0.000000
vt 0.175000 0.000000
vt 0.225000 0.000000
vt 0.275000 0.000000
vt 0.325000 0.000000
vt 0.375000 0.000000
vt 0.425000 0.000000
vt 0.475000 0.000000
vt 0.525000 0.000000
vt 0.575000 0.000000
vt 0.625000 0.000000
vt 0.675000 0.000000
vt 0.725000 0.000000
vt 0.775000 0.000000
vt 0.825000 0.000000
vt 0.875000 0.000000
vt 0.925000 0.000000
vt 0.975000 0.000000
vt 0.025000 1.000000
vt 0.075000 1.000000
vt 0.125000 1.000000
vt 0.175000 1.000000
vt 0.225000 1.000000
vt 0.275000 1.000000
vt 0.325000 1.000000
vt 0.375000 1.000000
vt 0.425000 1.000000
vt 0.475000 1.000000
vt 0.525000 1.000000
vt 0.575000 1.000000
vt 0.625000 1.000000
vt 0.675000 1.000000
vt 0.725000 1.000000
vt 0.775000 1.000000
vt 0.825000 1.000000
vt 0.875000 1.000000
vt 0.925000 1.000000
vt 0.975000 1.000000
vn 0.190555 -0.979722 -0.061915
vn 0.162096 -0.979722 -0.117770
vn 0.269870 -0.942723 -0.196072
vn 0.317252 -0.942722 -0.103081
vn 0.117769 -0.979722 -0.162095
vn 0.196072 -0.942723 -0.269870
vn 0.061915 -0.979722 -0.190555
vn 0.103081 -0.942723 -0.317251
vn -0.000000 -0.979722 -0.200361
vn -0.000000 -0.942723 -0.333578
vn -0.061915 -0.979722 -0.190555
vn -0.103081 -0.942722 -0.317252
vn -0.117769 -0.979722 -0.162096
vn -0.196072 -0.942722 -0.269871
vn -0.162096 -0.979722 -0.117770
vn -0.269870 -0.942722 -0.196072
vn -0.190555 -0.979722 -0.061915
vn -0.317252 -0.942722 -0.103081
vn -0.200361 -0.979722 0.000000
vn -0.333578 -0.942722 -0.000000
vn -0.190555 -0.979722 0.061915
vn -0.317252 -0.942722 0.103081
vn -0.162096 -0.979722 0.117769
vn -0.269870 -0.942723 0.196072
vn -0.117769 -0.979722 0.162095
vn -0.196072 -0.942722 0.269870
vn -0.061915 -0.979722 0.190555
vn -0.103081 -0.942722 0.317252
vn 0.000000 -0.979722 0.200361
vn 0.000000 -0.942722 0.333578
vn 0.061915 -0.979722 0.190555
vn 0.103081 -0.942722 0.317252
vn 0.117769 -0.979722 0.162096
vn 0.196072 -0.942722 0.269870
vn 0.162096 -0.979722 0.117769
vn 0.269870 -0.942722 0.196073
vn 0.190555 -0.979722 0.061915
vn 0.317252 -0.942722 0.103081
vn 0.200361 -0.979722 0.000001
vn 0.333578 -0.942722 0.000000
vn 0.380846 -0.882266 -0.276701
vn 0.447712 -0.882266 -0.145470
vn 0.276701 -0.882266 -0.380846
vn 0.145470 -0.882266 -0.447711
vn -0.000000 -0.882266 -0.470752
vn -0.145470 -0.882266 -0.447711
vn -0.276701 -0.882266 -0.380846
vn -0.380846 -0.882266 -0.276701
vn -0.447712 -0.882266 -0.145470
vn -0.470752 -0.882266 0.000000
vn -0.447712 -0.882266 0.145470
vn -0.380846 -0.882266 0.276701
vn -0.276701 -0.882266 0.380846
vn -0.145470 -0.882266 0.447712
vn 0.000000 -0.882266 0.470752
vn 0.145470 -0.882266 0.447712
vn 0.276701 -0.882266 0.380846
vn 0.380846 -0.882266 0.276701
vn 0.447712 -0.882266 0.145470
vn 0.470752 -0.882266 0.000000
vn 0.485138 -0.800252 -0.352474
vn 0.570314 -0.800252 -0.185306
vn 0.352473 -0.800252 -0.485138
vn 0.185306 -0.800252 -0.570314
vn -0.000000 -0.800252 -0.599664
vn -0.185307 -0.800252 -0.570314
vn -0.352474 -0.800252 -0.485138
vn -0.485138 -0.800252 -0.352474
vn -0.570314 -0.800252 -0.185306
vn -0.599664 -0.800252 0.000000
vn -0.570314 -0.800252 0.185306
vn -0.485138 -0.800252 0.352474
vn -0.352474 -0.800252 0.485139
vn -0.185306 -0.800252 0.570314
vn 0.000000 -0.800252 0.599664
vn 0.185306 -0.800252 0.570315
vn 0.352474 -0.800252 0.485139
vn 0.485138 -0.800252 0.352474
vn 0.570314 -0.800252 0.185306
vn 0.599664 -0.800252 0.000001
vn 0.578713 -0.698789 -0.420459
vn 0.680318 -0.698789 -0.221048
vn 0.420459 -0.698789 -0.578713
vn 0.221049 -0.698789 -0.680318
vn -0.000000 -0.698789 -0.715328
vn -0.221049 -0.698789 -0.680318
vn -0.420460 -0.698789 -0.578713
vn -0.578713 -0.698789 -0.420459
vn -0.680318 -0.698788 -0.221049
vn -0.715328 -0.698788 -0.000000
vn -0.680318 -0.698789 0.221049
vn -0.578713 -0.698788 0.420460
vn -0.420459 -0.698788 0.578713
vn -0.221049 -0.698788 0.680318
vn -0.000000 -0.698789 0.715328
vn 0.221049 -0.698789 0.680318
vn 0.420460 -0.698788 0.578713
vn 0.578713 -0.698788 0.420459
vn 0.680318 -0.698788 0.221049
vn 0.715328 -0.698788 0.000001
vn 0.658808 -0.580401 -0.478652
vn 0.774475 -0.580401 -0.251641
vn 0.478652 -0.580401 -0.658808
vn 0.251642 -0.580401 -0.774475
vn -0.000000 -0.580401 -0.814331
vn -0.251642 -0.580401 -0.774475
vn -0.478652 -0.580401 -0.658808
vn -0.658808 -0.580401 -0.478652
vn -0.774475 -0.580401 -0.251642
vn -0.814331 -0.580401 -0.000000
vn -0.774475 -0.580401 0.251642
vn -0.658808 -0.580401 0.478652
vn -0.478652 -0.580401 0.658808
vn -0.251642 -0.580401 0.774475
vn 0.000000 -0.580401 0.814331
vn 0.251642 -0.580401 0.774475
vn 0.478652 -0.580401 0.658808
vn 0.658808 -0.580401 0.478652
vn 0.774475 -0.580401 0.251642
vn 0.814331 -0.580401 0.000001
vn 0.723291 -0.447994 -0.525502
vn 0.850280 -0.447994 -0.276272
vn 0.525501 -0.447994 -0.723291
vn 0.276272 -0.447994 -0.850279
vn -0.000000 -0.447994 -0.894037
vn -0.276273 -0.447994 -0.850279
vn -0.525502 -0.447994 -0.723291
vn -0.723291 -0.447994 -0.525501
vn -0.850280 -0.447994 -0.276272
vn -0.894037 -0.447994 -0.000000
vn -0.850279 -0.447994 0.276273
vn -0.723291 -0.447994 0.525502
vn -0.525502 -0.447994 0.723291
vn -0.276273 -0.447994 0.850280
vn 0.000000 -0.447994 0.894037
vn 0.276273 -0.447994 0.850280
vn 0.525502 -0.447994 0.723291
vn 0.723291 -0.447994 0.525502
vn 0.850280 -0.447994 0.276273
vn 0.894037 -0.447994 0.000001
vn 0.770524 -0.304789 -0.559819
vn 0.905806 -0.304789 -0.294313
vn 0.559818 -0.304789 -0.770524
vn 0.294314 -0.304789 -0.905805
vn -0.000000 -0.304789 -0.952420
vn -0.294314 -0.304789 -0.905805
vn -0.559819 -0.304789 -0.770524
vn -0.770524 -0.304789 -0.559818
vn -0.905805 -0.304789 -0.294314
vn -0.952420 -0.304789 -0.000000
vn -0.905805 -0.304789 0.294314
vn -0.770524 -0.304788 0.559819
vn -0.559818 -0.304788 0.770524
vn -0.294314 -0.304789 0.905805
vn 0.000000 -0.304789 0.952420
vn 0.294314 -0.304789 0.905805
vn 0.559818 -0.304789 0.770524
vn 0.770524 -0.304789 0.559818
vn 0.905805 -0.304789 0.294314
vn 0.952420 -0.304788 0.000001
vn 0.799335 -0.154249 -0.580751
vn 0.939675 -0.154249 -0.305318
vn 0.580751 -0.154249 -0.799335
vn 0.305319 -0.154249 -0.939674
vn 0.000000 -0.154249 -0.988032
vn -0.305319 -0.154249 -0.939674
vn -0.580751 -0.154249 -0.799335
vn -0.799335 -0.154249 -0.580751
vn -0.939674 -0.154248 -0.305319
vn -0.988032 -0.154248 0.000000
vn -0.939674 -0.154248 0.305319
vn -0.799335 -0.154248 0.580751
vn -0.580751 -0.154249 0.799335
vn -0.305319 -0.154249 0.939674
vn 0.000000 -0.154249 0.988032
vn 0.305319 -0.154249 0.939674
vn 0.580751 -0.154249 0.799335
vn 0.799335 -0.154249 0.580751
vn 0.939674 -0.154249 0.305319
vn 0.988032 -0.154249 0.000001
vn 0.809017 0.000000 -0.587785
vn 0.951057 -0.000000 -0.309016
vn 0.587785 -0.000000 -0.809017
vn 0.309017 -0.000000 -0.951057
vn 0.000000 0.000000 -1.000000
vn -0.309017 -0.000000 -0.951056
vn -0.587785 -0.000000 -0.809017
vn -0.809017 0.000000 -0.587785
vn -0.951056 0.000000 -0.309017
vn -1.000000 -0.000000 0.000000
vn -0.951056 -0.000000 0.309017
vn -0.809017 0.000000 0.587785
vn -0.587785 -0.000000 0.809017
vn -0.309017 -0.000000 0.951057
vn 0.000000 0.000000 1.000000
vn 0.309017 -0.000000 0.951056
vn 0.587785 -0.000000 0.809017
vn 0.809017 -0.000000 0.587785
vn 0.951056 0.000000 0.309017
vn 1.000000 0.000000 0.000001
vn 0.799335 0.154249 -0.580751
vn 0.939675 0.154249 -0.305318
vn 0.580751 0.154249 -0.799335
vn 0.305319 0.154249 -0.939674
vn 0.000000 0.154249 -0.988032
vn -0.305319 0.154249 -0.939674
vn -0.580751 0.154249 -0.799335
vn -0.799335 0.154249 -0.580751
vn -0.939674 0.154248 -0.305319
vn -0.988032 0.154248 0.000000
vn -0.939674 0.154248 0.305319
vn -0.799335 0.154248 0.580751
vn -0.580751 0.154249 0.799335
vn -0.305319 0.154249 0.939674
vn 0.000000 0.154249 0.988032
vn 0.305319 0.154249 0.939674
vn 0.580751 0.154249 0.799335
vn 0.799335 0.154249 0.580751
vn 0.939674 0.154249 0.305319
vn 0.988032 0.154249 0.000001
vn 0.770524 0.304789 -0.559819
vn 0.905806 0.304789 -0.294313
vn 0.559818 0.304789 -0.770524
vn 0.294314 0.304789 -0.905805
vn -0.000000 0.304789 -0.952420
vn -0.294314 0.304789 -0.905805
vn -0.559819 0.304789 -0.770524
vn -0.770524 0.304789 -0.559818
vn -0.905805 0.304789 -0.294314
vn -0.952420 0.304789 -0.000000
vn -0.905805 0.304789 0.294314
vn -0.770524 0.304789 0.559819
vn -0.559818 0.304788 0.770524
vn -0.294314 0.304789 0.905805
vn 0.000000 0.304789 0.952420
vn 0.294314 0.304789 0.905805
vn 0.559818 0.304789 0.770524
vn 0.770524 0.304789 0.559818
vn 0.905805 0.304789 0.294314
vn 0.952420 0.304788 0.000001
vn 0.723291 0.447994 -0.525502
vn 0.850280 0.447994 -0.276272
vn 0.525501 0.447994 -0.723291
vn 0.276272 0.447994 -0.850280
vn -0.000000 0.447994 -0.894037
vn -0.276273 0.447994 -0.850279
vn -0.525502 0.447994 -0.723291
vn -0.723291 0.447994 -0.525501
vn -0.850280 0.447994 -0.276273
vn -0.894037 0.447994 -0.000000
vn -0.850280 0.447994 0.276273
vn -0.723291 0.447994 0.525502
vn -0.525502 0.447994 0.723291
vn -0.276273 0.447994 0.850280
vn 0.000000 0.447994 0.894037
vn 0.276273 0.447994 0.850280
vn 0.525502 0.447994 0.723291
vn 0.723291 0.447994 0.525502
vn 0.850280 0.447994 0.276273
vn 0.894037 0.447994 0.000001
vn 0.658808 0.580401 -0.478652
vn 0.774475 0.580401 -0.251641
vn 0.478652 0.580401 -0.658808
vn 0.251642 0.580401 -0.774475
vn -0.000000 0.580401 -0.814331
vn -0.251642 0.580401 -0.774475
vn -0.478652 0.580401 -0.658808
vn -0.658808 0.580401 -0.478652
vn -0.774475 0.580401 -0.251642
vn -0.814331 0.580401 -0.000000
vn -0.774475 0.580401 0.251642
vn -0.658808 0.580401 0.478652
vn -0.478652 0.580401 0.658808
vn -0.251642 0.580401 0.774475
vn 0.000000 0.580401 0.814331
vn 0.251642 0.580401 0.774475
vn 0.478652 0.580401 0.658808
vn 0.658808 0.580401 0.478652
vn 0.774475 0.580401 0.251642
vn 0.814331 0.580401 0.000001
vn 0.578712 0.698789 -0.420459
vn 0.680318 0.698789 -0.221048
vn 0.420459 0.698789 -0.578713
vn 0.221049 0.698789 -0.680318
vn -0.000000 0.698789 -0.715328
vn -0.221049 0.698789 -0.680318
vn -0.420460 0.698789 -0.578713
vn -0.578713 0.698789 -0.420459
vn -0.680318 0.698789 -0.221049
vn -0.715328 0.698789 0.000000
vn -0.680318 0.698789 0.221049
vn -0.578713 0.698788 0.420460
vn -0.420459 0.698788 0.578713
vn -0.221049 0.698788 0.680318
vn -0.000000 0.698788 0.715328
vn 0.221049 0.698789 0.680318
vn 0.420459 0.698788 0.578713
vn 0.578713 0.698788 0.420460
vn 0.680318 0.698788 0.221049
vn 0.715328 0.698788 0.000001
vn 0.485138 0.800252 -0.352474
vn 0.570314 0.800252 -0.185306
vn 0.352473 0.800252 -0.485139
vn 0.185306 0.800252 -0.570314
vn -0.000000 0.800252 -0.599664
vn -0.185307 0.800252 -0.570314
vn -0.352474 0.800252 -0.485138
vn -0.485138 0.800252 -0.352474
vn -0.570314 0.800252 -0.185306
vn -0.599664 0.800252 0.000000
vn -0.570314 0.800252 0.185306
vn -0.485138 0.800252 0.352474
vn -0.352474 0.800252 0.485138
vn -0.185306 0.800252 0.570314
vn 0.000000 0.800252 0.599664
vn 0.185306 0.800252 0.570315
vn 0.352474 0.800252 0.485139
vn 0.485139 0.800252 0.352474
vn 0.570314 0.800252 0.185306
vn 0.599664 0.800252 0.000001
vn 0.380846 0.882266 -0.276701
vn 0.447712 0.882266 -0.145470
vn 0.276701 0.882266 -0.380846
vn 0.145470 0.882266 -0.447711
vn -0.000000 0.882266 -0.470752
vn -0.145470 0.882266 -0.447711
vn -0.276701 0.882266 -0.380846
vn -0.380846 0.882266 -0.276701
vn -0.447712 0.882266 -0.145470
vn -0.470752 0.882266 0.000000
vn -0.447712 0.882266 0.145471
vn -0.380846 0.882266 0.276701
vn -0.276701 0.882266 0.380846
vn -0.145470 0.882266 0.447712
vn 0.000000 0.882266 0.470752
vn 0.145470 0.882266 0.447712
vn 0.276701 0.882266 0.380846
vn 0.380846 0.882266 0.276701
vn 0.447712 0.882266 0.145470
vn 0.470752 0.882266 0.000000
vn 0.269870 0.942722 -0.196073
vn 0.317252 0.942722 -0.103081
vn 0.196072 0.942722 -0.269871
vn 0.103081 0.942723 -0.317251
vn -0.000000 0.942723 -0.333578
vn -0.103081 0.942723 -0.317251
vn -0.196072 0.942722 -0.269870
vn -0.269870 0.942723 -0.196072
vn -0.317252 0.942722 -0.103081
vn -0.333578 0.942722 0.000000
vn -0.317252 0.942722 0.103082
vn -0.269870 0.942723 0.196072
vn -0.196072 0.942722 0.269870
vn -0.103081 0.942722 0.317252
vn 0.000000 0.942722 0.333578
vn 0.103081 0.942722 0.317252
vn 0.196072 0.942722 0.269870
vn 0.269870 0.942722 0.196072
vn 0.317252 0.942722 0.103081
vn 0.333578 0.942722 0.000000
vn 0.162096 0.979722 -0.117769
vn 0.190555 0.979722 -0.061915
vn 0.117769 0.979722 -0.162096
vn 0.061915 0.979722 -0.190555
vn -0.000000 0.979722 -0.200361
vn -0.061915 0.979722 -0.190555
vn -0.117769 0.979722 -0.162095
vn -0.162096 0.979722 -0.117769
vn -0.190555 0.979722 -0.061915
vn -0.200361 0.979722 0.000000
vn -0.190555 0.979722 0.061915
vn -0.162096 0.979722 0.117769
vn -0.117769 0.979722 0.162096
vn -0.061915 0.979722 0.190555
vn 0.000000 0.979722 0.200361
vn 0.061915 0.979722 0.190555
vn 0.117769 0.979722 0.162096
vn 0.162096 0.979722 0.117769
vn 0.190555 0.979722 0.061915
vn 0.200361 0.979722 0.000001
vn -0.000000 -1.000000 -0.000000
vn -0.000000 1.000000 0.000000
s 1
g pSphere1
usemtl initialShadingGroup
f 1/1/1 2/2/2 22/23/3 21/22/4
f 2/2/2 3/3/5 23/24/6 22/23/3
f 3/3/5 4/4/7 24/25/8 23/24/6
f 4/4/7 5/5/9 25/26/10 24/25/8
f 5/5/9 6/6/11 26/27/12 25/26/10
f 6/6/11 7/7/13 27/28/14 26/27/12
f 7/7/13 8/8/15 28/29/16 27/28/14
f 8/8/15 9/9/17 29/30/18 28/29/16
f 9/9/17 10/10/19 30/31/20 29/30/18
f 10/10/19 11/11/21 31/32/22 30/31/20
f 11/11/21 12/12/23 32/33/24 31/32/22
f 12/12/23 13/13/25 33/34/26 32/33/24
f 13/13/25 14/14/27 34/35/28 33/34/26
f 14/14/27 15/15/29 35/36/30 34/35/28
f 15/15/29 16/16/31 36/37/32 35/36/30
f 16/16/31 17/17/33 37/38/34 36/37/32
f 17/17/33 18/18/35 38/39/36 37/38/34
f 18/18/35 19/19/37 39/40/38 38/39/36
f 19/19/37 20/20/39 40/41/40 39/40/38
f 20/20/39 1/21/1 21/42/4 40/41/40
f 21/22/4 22/23/3 42/44/41 41/43/42
f 22/23/3 23/24/6 43/45/43 42/44/41
f 23/24/6 24/25/8 44/46/44 43/45/43
f 24/25/8 25/26/10 45/47/45 44/46/44
f 25/26/10 26/27/12 46/48/46 45/47/45
f 26/27/12 27/28/14 47/49/47 46/48/46
f 27/28/14 28/29/16 48/50/48 47/49/47
f 28/29/16 29/30/18 49/51/49 48/50/48
f 29/30/18 30/31/20 50/52/50 49/51/49
f 30/31/20 31/32/22 51/53/51 50/52/50
f 31/32/22 32/33/24 52/54/52 51/53/51
f 32/33/24 33/34/26 53/55/53 52/54/52
f 33/34/26 34/35/28 54/56/54 53/55/53
f 34/35/28 35/36/30 55/57/55 54/56/54
f 35/36/30 36/37/32 56/58/56 55/57/55
f 36/37/32 37/38/34 57/59/57 56/58/56
f 37/38/34 38/39/36 58/60/58 57/59/57
f 38/39/36 39/40/38 59/61/59 58/60/58
f 39/40/38 40/41/40 60/62/60 59/61/59
f 40/41/40 21/42/4 41/63/42 60/62/60
f 41/43/42 42/44/41 62/65/61 61/64/62
f 42/44/41 43/45/43 63/66/63 62/65/61
f 43/45/43 44/46/44 64/67/64 63/66/63
f 44/46/44 45/47/45 65/68/65 64/67/64
f 45/47/45 46/48/46 66/69/66 65/68/65
f 46/48/46 47/49/47 67/70/67 66/69/66
f 47/49/47 48/50/48 68/71/68 67/70/67
f 48/50/48 49/51/49 69/72/69 68/71/68
f 49/51/49 50/52/50 70/73/70 69/72/69
f 50/52/50 51/53/51 71/74/71 70/73/70
f 51/53/51 52/54/52 72/75/72 71/74/71
f 52/54/52 53/55/53 73/76/73 72/75/72
f 53/55/53 54/56/54 74/77/74 73/76/73
f 54/56/54 55/57/55 75/78/75 74/77/74
f 55/57/55 56/58/56 76/79/76 75/78/75
f 56/58/56 57/59/57 77/80/77 76/79/76
f 57/59/57 58/60/58 78/81/78 77/80/77
f 58/60/58 59/61/59 79/82/79 78/81/78
f 59/61/59 60/62/60 80/83/80 79/82/79
f 60/62/60 41/63/42 61/84/62 80/83/80
f 61/64/62 62/65/61 82/86/81 81/85/82
f 62/65/61 63/66/63 83/87/83 82/86/81
f 63/66/63 64/67/64 84/88/84 83/87/83
f 64/67/64 65/68/65 85/89/85 84/88/84
f 65/68/65 66/69/66 86/90/86 85/89/85
f 66/69/66 67/70/67 87/91/87 86/90/86
f 67/70/67 68/71/68 88/92/88 87/91/87
f 68/71/68 69/72/69 89/93/89 88/92/88
f 69/72/69 70/73/70 90/94/90 89/93/89
f 70/73/70 71/74/71 91/95/91 90/94/90
f 71/74/71 72/75/72 92/96/92 91/95/91
f 72/75/72 73/76/73 93/97/93 92/96/92
f 73/76/73 74/77/74 94/98/94 93/97/93
f 74/77/74 75/78/75 95/99/95 94/98/94
f 75/78/75 76/79/76 96/100/96 95/99/95
f 76/79/76 77/80/77 97/101/97 96/100/96
f 77/80/77 78/81/78 98/102/98 97/101/97
f 78/81/78 79/82/79 99/103/99 98/102/98
f 79/82/79 80/83/80 100/104/100 99/103/99
f 80/83/80 61/84/62 81/105/82 100/104/100
f 81/85/82 82/86/81 102/107/101 101/106/102
f 82/86/81 83/87/83 103/108/103 102/107/101
f 83/87/83 84/88/84 104/109/104 103/108/103
f 84/88/84 85/89/85 105/110/105 104/109/104
f 85/89/85 86/90/86 106/111/106 105/110/105
f 86/90/86 87/91/87 107/112/107 106/111/106
f 87/91/87 88/92/88 108/113/108 107/112/107
f 88/92/88 89/93/89 109/114/109 108/113/108
f 89/93/89 90/94/90 110/115/110 109/114/109
f 90/94/90 91/95/91 111/116/111 110/115/110
f 91/95/91 92/96/92 112/117/112 111/116/111
f 92/96/92 93/97/93 113/118/113 112/117/112
f 93/97/93 94/98/94 114/119/114 113/118/113
f 94/98/94 95/99/95 115/120/115 114/119/114
f 95/99/95 96/100/96 116/121/116 115/120/115
f 96/100/96 97/101/97 117/122/117 116/121/116
f 97/101/97 98/102/98 118/123/118 117/122/117
f 98/102/98 99/103/99 119/124/119 118/123/118
f 99/103/99 100/104/100 120/125/120 119/124/119
f 100/104/100 81/105/82 101/126/102 120/125/120
f 101/106/102 102/107/101 122/128/121 121/127/122
f 102/107/101 103/108/103 123/129/123 122/128/121
f 103/108/103 104/109/104 124/130/124 123/129/123
f 104/109/104 105/110/105 125/131/125 124/130/124
f 105/110/105 106/111/106 126/132/126 125/131/125
f 106/111/106 107/112/107 127/133/127 126/132/126
f 107/112/107 108/113/108 128/134/128 127/133/127
f 108/113/108 109/114/109 129/135/129 128/134/128
f 109/114/109 110/115/110 130/136/130 129/135/129
f 110/115/110 111/116/111 131/137/131 130/136/130
f 111/116/111 112/117/112 132/138/132 131/137/131
f 112/117/112 113/118/113 133/139/133 132/138/132
f 113/118/113 114/119/114 134/140/134 133/139/133
f 114/119/114 115/120/115 135/141/135 134/140/134
f 115/120/115 116/121/116 136/142/136 135/141/135
f 116/121/116 117/122/117 137/143/137 136/142/136
f 117/122/117 118/123/118 138/144/138 137/143/137
f 118/123/118 119/124/119 139/145/139 138/144/138
f 119/124/119 120/125/120 140/146/140 139/145/139
f 120/125/120 101/126/102 121/147/122 140/146/140
f 121/127/122 122/128/121 142/149/141 141/148/142
f 122/128/121 123/129/123 143/150/143 142/149/141
f 123/129/123 124/130/124 144/151/144 143/150/143
f 124/130/124 125/131/125 145/152/145 144/151/144
f 125/131/125 126/132/126 146/153/146 145/152/145
f 126/132/126 127/133/127 147/154/147 146/153/146
f 127/133/127 128/134/128 148/155/148 147/154/147
f 128/134/128 129/135/129 149/156/149 148/155/148
f 129/135/129 130/136/130 150/157/150 149/156/149
f 130/136/130 131/137/131 151/158/151 150/157/150
f 131/137/131 132/138/132 152/159/152 151/158/151
f 132/138/132 133/139/133 153/160/153 152/159/152
f 133/139/133 134/140/134 154/161/154 153/160/153
f 134/140/134 135/141/135 155/162/155 154/161/154
f 135/141/135 136/142/136 156/163/156 155/162/155
f 136/142/136 137/143/137 157/164/157 156/163/156
f 137/143/137 138/144/138 158/165/158 157/164/157
f 138/144/138 139/145/139 159/166/159 158/165/158
f 139/145/139 140/146/140 160/167/160 159/166/159
f 140/146/140 121/147/122 141/168/142 160/167/160
f 141/148/142 142/149/141 162/170/161 161/169/162
f 142/149/141 143/150/143 163/171/163 162/170/161
f 143/150/143 144/151/144 164/172/164 163/171/163
f 144/151/144 145/152/145 165/173/165 164/172/164
f 145/152/145 146/153/146 166/174/166 165/173/165
f 146/153/146 147/154/147 167/175/167 166/174/166
f 147/154/147 148/155/148 168/176/168 167/175/167
f 148/155/148 149/156/149 169/177/169 168/176/168
f 149/156/149 150/157/150 170/178/170 169/177/169
f 150/157/150 151/158/151 171/179/171 170/178/170
f 151/158/151 152/159/152 172/180/172 171/179/171
f 152/159/152 153/160/153 173/181/173 172/180/172
f 153/160/153 154/161/154 174/182/174 173/181/173
f 154/161/154 155/162/155 175/183/175 174/182/174
f 155/162/155 156/163/156 176/184/176 175/183/175
f 156/163/156 157/164/157 177/185/177 176/184/176
f 157/164/157 158/165/158 178/186/178 177/185/177
f 158/165/158 159/166/159 179/187/179 178/186/178
f 159/166/159 160/167/160 180/188/180 179/187/179
f 160/167/160 141/168/142 161/189/162 180/188/180
f 161/169/162 162/170/161 182/191/181 181/190/182
f 162/170/161 163/171/163 183/192/183 182/191/181
f 163/171/163 164/172/164 184/193/184 183/192/183
f 164/172/164 165/173/165 185/194/185 184/193/184
f 165/173/165 166/174/166 186/195/186 185/194/185
f 166/174/166 167/175/167 187/196/187 186/195/186
f 167/175/167 168/176/168 188/197/188 187/196/187
f 168/176/168 169/177/169 189/198/189 188/197/188
f 169/177/169 170/178/170 190/199/190 189/198/189
f 170/178/170 171/179/171 191/200/191 190/199/190
f 171/179/171 172/180/172 192/201/192 191/200/191
f 172/180/172 173/181/173 193/202/193 192/201/192
f 173/181/173 174/182/174 194/203/194 193/202/193
f 174/182/174 175/183/175 195/204/195 194/203/194
f 175/183/175 176/184/176 196/205/196 195/204/195
f 176/184/176 177/185/177 197/206/197 196/205/196
f 177/185/177 178/186/178 198/207/198 197/206/197
f 178/186/178 179/187/179 199/208/199 198/207/198
f 179/187/179 180/188/180 200/209/200 199/208/199
f 180/188/180 161/189/162 181/210/182 200/209/200
f 181/190/182 182/191/181 202/212/201 201/211/202
f 182/191/181 183/192/183 203/213/203 202/212/201
f 183/192/183 184/193/184 204/214/204 203/213/203
f 184/193/184 185/194/185 205/215/205 204/214/204
f 185/194/185 186/195/186 206/216/206 205/215/205
f 186/195/186 187/196/187 207/217/207 206/216/206
f 187/196/187 188/197/188 208/218/208 207/217/207
f 188/197/188 189/198/189 209/219/209 208/218/208
f 189/198/189 190/199/190 210/220/210 209/219/209
f 190/199/190 191/200/191 211/221/211 210/220/210
f 191/200/191 192/201/192 212/222/212 211/221/211
f 192/201/192 193/202/193 213/223/213 212/222/212
f 193/202/193 194/203/194 214/224/214 213/223/213
f 194/203/194 195/204/195 215/225/215 214/224/214
f 195/204/195 196/205/196 216/226/216 215/225/215
f 196/205/196 197/206/197 217/227/217 216/226/216
f 197/206/197 198/207/198 218/228/218 217/227/217
f 198/207/198 199/208/199 219/229/219 218/228/218
f 199/208/199 200/209/200 220/230/220 219/229/219
f 200/209/200 181/210/182 201/231/202 220/230/220
f 201/211/202 202/212/201 222/233/221 221/232/222
f 202/212/201 203/213/203 223/234/223 222/233/221
f 203/213/203 204/214/204 224/235/224 223/234/223
f 204/214/204 205/215/205 225/236/225 224/235/224
f 205/215/205 206/216/206 226/237/226 225/236/225
f 206/216/206 207/217/207 227/238/227 226/237/226
f 207/217/207 208/218/208 228/239/228 227/238/227
f 208/218/208 209/219/209 229/240/229 228/239/228
f 209/219/209 210/220/210 230/241/230 229/240/229
f 210/220/210 211/221/211 231/242/231 230/241/230
f 211/221/211 212/222/212 232/243/232 231/242/231
f 212/222/212 213/223/213 233/244/233 232/243/232
f 213/223/213 214/224/214 234/245/234 233/244/233
f 214/224/214 215/225/215 235/246/235 234/245/234
f 215/225/215 216/226/216 236/247/236 235/246/235
f 216/226/216 217/227/217 237/248/237 236/247/236
f 217/227/217 218/228/218 238/249/238 237/248/237
f 218/228/218 219/229/219 239/250/239 238/249/238
f 219/229/219 220/230/220 240/251/240 239/250/239
f 220/230/220 201/231/202 221/252/222 240/251/240
f 221/232/222 222/233/221 242/254/241 241/253/242
f 222/233/221 223/234/223 243/255/243 242/254/241
f 223/234/223 224/235/224 244/256/244 243/255/243
f 224/235/224 225/236/225 245/257/245 244/256/244
f 225/236/225 226/237/226 246/258/246 245/257/245
f 226/237/226 227/238/227 247/259/247 246/258/246
f 227/238/227 228/239/228 248/260/248 247/259/247
f 228/239/228 229/240/229 249/261/249 248/260/248
f 229/240/229 230/241/230 250/262/250 249/261/249
f 230/241/230 231/242/231 251/263/251 250/262/250
f 231/242/231 232/243/232 252/264/252 251/263/251
f 232/243/232 233/244/233 253/265/253 252/264/252
f 233/244/233 234/245/234 254/266/254 253/265/253
f 234/245/234 235/246/235 255/267/255 254/266/254
f 235/246/235 236/247/236 256/268/256 255/267/255
f 236/247/236 237/248/237 257/269/257 256/268/256
f 237/248/237 238/249/238 258/270/258 257/269/257
f 238/249/238 239/250/239 259/271/259 258/270/258
f 239/250/239 240/251/240 260/272/260 259/271/259
f 240/251/240 221/252/222 241/273/242 260/272/260
f 241/253/242 242/254/241 262/275/261 261/274/262
f 242/254/241 243/255/243 263/276/263 262/275/261
f 243/255/243 244/256/244 264/277/264 263/276/263
f 244/256/244 245/257/245 265/278/265 264/277/264
f 245/257/245 246/258/246 266/279/266 265/278/265
f 246/258/246 247/259/247 267/280/267 266/279/266
f 247/259/247 248/260/248 268/281/268 267/280/267
f 248/260/248 249/261/249 269/282/269 268/281/268
f 249/261/249 250/262/250 270/283/270 269/282/269
f 250/262/250 251/263/251 271/284/271 270/283/270
f 251/263/251 252/264/252 272/285/272 271/284/271
f 252/264/252 253/265/253 273/286/273 272/285/272
f 253/265/253 254/266/254 274/287/274 273/286/273
f 254/266/254 255/267/255 275/288/275 274/287/274
f 255/267/255 256/268/256 276/289/276 275/288/275
f 256/268/256 257/269/257 277/290/277 276/289/276
f 257/269/257 258/270/258 278/291/278 277/290/277
f 258/270/258 259/271/259 279/292/279 278/291/278
f 259/271/259 260/272/260 280/293/280 279/292/279
f 260/272/260 241/273/242 261/294/262 280/293/280
f 261/274/262 262/275/261 282/296/281 281/295/282
f 262/275/261 263/276/263 283/297/283 282/296/281
f 263/276/263 264/277/264 284/298/284 283/297/283
f 264/277/264 265/278/265 285/299/285 284/298/284
f 265/278/265 266/279/266 286/300/286 285/299/285
f 266/279/266 267/280/267 287/301/287 286/300/286
f 267/280/267 268/281/268 288/302/288 287/301/287
f 268/281/268 269/282/269 289/303/289 288/302/288
f 269/282/269 270/283/270 290/304/290 289/303/289
f 270/283/270 271/284/271 291/305/291 290/304/290
f 271/284/271 272/285/272 292/306/292 291/305/291
f 272/285/272 273/286/273 293/307/293 292/306/292
f 273/286/273 274/287/274 294/308/294 293/307/293
f 274/287/274 275/288/275 295/309/295 294/308/294
f 275/288/275 276/289/276 296/310/296 295/309/295
f 276/289/276 277/290/277 297/311/297 296/310/296
f 277/290/277 278/291/278 298/312/298 297/311/297
f 278/291/278 279/292/279 299/313/299 298/312/298
f 279/292/279 280/293/280 300/314/300 299/313/299
f 280/293/280 261/294/262 281/315/282 300/314/300
f 281/295/282 282/296/281 302/317/301 301/316/302
f 282/296/281 283/297/283 303/318/303 302/317/301
f 283/297/283 284/298/284 304/319/304 303/318/303
f 284/298/284 285/299/285 305/320/305 304/319/304
f 285/299/285 286/300/286 306/321/306 305/320/305
f 286/300/286 287/301/287 307/322/307 306/321/306
f 287/301/287 288/302/288 308/323/308 307/322/307
f 288/302/288 289/303/289 309/324/309 308/323/308
f 289/303/289 290/304/290 310/325/310 309/324/309
f 290/304/290 291/305/291 311/326/311 310/325/310
f 291/305/291 292/306/292 312/327/312 311/326/311
f 292/306/292 293/307/293 313/328/313 312/327/312
f 293/307/293 294/308/294 314/329/314 313/328/313
f 294/308/294 295/309/295 315/330/315 314/329/314
f 295/309/295 296/310/296 316/331/316 315/330/315
f 296/310/296 297/311/297 317/332/317 316/331/316
f 297/311/297 298/312/298 318/333/318 317/332/317
f 298/312/298 299/313/299 319/334/319 318/333/318
f 299/313/299 300/314/300 320/335/320 319/334/319
f 300/314/300 281/315/282 301/336/302 320/335/320
f 301/316/302 302/317/301 322/338/321 321/337/322
f 302/317/301 303/318/303 323/339/323 322/338/321
f 303/318/303 304/319/304 324/340/324 323/339/323
f 304/319/304 305/320/305 325/341/325 324/340/324
f 305/320/305 306/321/306 326/342/326 325/341/325
f 306/321/306 307/322/307 327/343/327 326/342/326
f 307/322/307 308/323/308 328/344/328 327/343/327
f 308/323/308 309/324/309 329/345/329 328/344/328
f 309/324/309 310/325/310 330/346/330 329/345/329
f 310/325/310 311/326/311 331/347/331 330/346/330
f 311/326/311 312/327/312 332/348/332 331/347/331
f 312/327/312 313/328/313 333/349/333 332/348/332
f 313/328/313 314/329/314 334/350/334 333/349/333
f 314/329/314 315/330/315 335/351/335 334/350/334
f 315/330/315 316/331/316 336/352/336 335/351/335
f 316/331/316 317/332/317 337/353/337 336/352/336
f 317/332/317 318/333/318 338/354/338 337/353/337
f 318/333/318 319/334/319 339/355/339 338/354/338
f 319/334/319 320/335/320 340/356/340 339/355/339
f 320/335/320 301/336/302 321/357/322 340/356/340
f 321/337/322 322/338/321 342/359/341 341/358/342
f 322/338/321 323/339/323 343/360/343 342/359/341
f 323/339/323 324/340/324 344/361/344 343/360/343
f 324/340/324 325/341/325 345/362/345 344/361/344
f 325/341/325 326/342/326 346/363/346 345/362/345
f 326/342/326 327/343/327 347/364/347 346/363/346
f 327/343/327 328/344/328 348/365/348 347/364/347
f 328/344/328 329/345/329 349/366/349 348/365/348
f 329/345/329 330/346/330 350/367/350 349/366/349
f 330/346/330 331/347/331 351/368/351 350/367/350
f 331/347/331 332/348/332 352/369/352 351/368/351
f 332/348/332 333/349/333 353/370/353 352/369/352
f 333/349/333 334/350/334 354/371/354 353/370/353
f 334/350/334 335/351/335 355/372/355 354/371/354
f 335/351/335 336/352/336 356/373/356 355/372/355
f 336/352/336 337/353/337 357/374/357 356/373/356
f 337/353/337 338/354/338 358/375/358 357/374/357
f 338/354/338 339/355/339 359/376/359 358/375/358
f 339/355/339 340/356/340 360/377/360 359/376/359
f 340/356/340 321/357/322 341/378/342 360/377/360
f 341/358/342 342/359/341 362/380/361 361/379/362
f 342/359/341 343/360/343 363/381/363 362/380/361
f 343/360/343 344/361/344 364/382/364 363/381/363
f 344/361/344 345/362/345 365/383/365 364/382/364
f 345/362/345 346/363/346 366/384/366 365/383/365
f 346/363/346 347/364/347 367/385/367 366/384/366
f 347/364/347 348/365/348 368/386/368 367/385/367
f 348/365/348 349/366/349 369/387/369 368/386/368
f 349/366/349 350/367/350 370/388/370 369/387/369
f 350/367/350 351/368/351 371/389/371 370/388/370
f 351/368/351 352/369/352 372/390/372 371/389/371
f 352/369/352 353/370/353 373/391/373 372/390/372
f 353/370/353 354/371/354 374/392/374 373/391/373
f 354/371/354 355/372/355 375/393/375 374/392/374
f 355/372/355 356/373/356 376/394/376 375/393/375
f 356/373/356 357/374/357 377/395/377 376/394/376
f 357/374/357 358/375/358 378/396/378 377/395/377
f 358/375/358 359/376/359 379/397/379 378/396/378
f 359/376/359 360/377/360 380/398/380 379/397/379
f 360/377/360 341/378/342 361/399/362 380/398/380
f 2/2/2 1/1/1 381/400/381
f 3/3/5 2/2/2 381/401/381
f 4/4/7 3/3/5 381/402/381
f 5/5/9 4/4/7 381/403/381
f 6/6/11 5/5/9 381/404/381
f 7/7/13 6/6/11 381/405/381
f 8/8/15 7/7/13 381/406/381
f 9/9/17 8/8/15 381/407/381
f 10/10/19 9/9/17 381/408/381
f 11/11/21 10/10/19 381/409/381
f 12/12/23 11/11/21 381/410/381
f 13/13/25 12/12/23 381/411/381
f 14/14/27 13/13/25 381/412/381
f 15/15/29 14/14/27 381/413/381
f 16/16/31 15/15/29 381/414/381
f 17/17/33 16/16/31 381/415/381
f 18/18/35 17/17/33 381/416/381
f 19/19/37 18/18/35 381/417/381
f 20/20/39 19/19/37 381/418/381
f 1/21/1 20/20/39 381/419/381
f 361/379/362 362/380/361 382/420/382
f 362/380/361 363/381/363 382/421/382
f 363/381/363 364/382/364 382/422/382
f 364/382/364 365/383/365 382/423/382
f 365/383/365 366/384/366 382/424/382
f 366/384/366 367/385/367 382/425/382
f 367/385/367 368/386/368 382/426/382
f 368/386/368 369/387/369 382/427/382
f 369/387/369 370/388/370 382/428/382
f 370/388/370 371/389/371 382/429/382
f 371/389/371 372/390/372 382/430/382
f 372/390/372 373/391/373 382/431/382
f 373/391/373 374/392/374 382/432/382
f 374/392/374 375/393/375 382/433/382
f 375/393/375 376/394/376 382/434/382
f 376/394/376 377/395/377 382/435/382
f 377/395/377 378/396/378 382/436/382
f 378/396/378 379/397/379 382/437/382
f 379/397/379 380/398/380 382/438/382
f 380/398/380 361/399/362 382/439/382
